make install
/bin/sh /Users/envieidoc/CloverGrowerPro/src/gcc/binutils-2.25/mkinstalldirs /Users/envieidoc/CloverGrowerPro/toolchain/cross /Users/envieidoc/CloverGrowerPro/toolchain/cross
make[1]: Nothing to be done for `install-target'.
mkdir /Users/envieidoc/CloverGrowerPro/toolchain/cross
rm -f stamp-h1
make[2]: Nothing to be done for `install'.
/bin/sh ./config.status config.h
make[3]: Nothing to be done for `all'.
make[3]: Nothing to be done for `install'.
if test -n ""; then \
		/bin/sh /Users/envieidoc/CloverGrowerPro/src/gcc/binutils-2.25/libiberty/../mkinstalldirs /Users/envieidoc/CloverGrowerPro/toolchain/cross/lib/`gcc -g -O2 -print-multi-os-directory`; \
		/usr/bin/install -c -m 644 ./libiberty.a /Users/envieidoc/CloverGrowerPro/toolchain/cross/lib/`gcc -g -O2 -print-multi-os-directory`/./libiberty.an; \
		( cd /Users/envieidoc/CloverGrowerPro/toolchain/cross/lib/`gcc -g -O2 -print-multi-os-directory` ; chmod 644 ./libiberty.an ;ranlib ./libiberty.an ); \
		mv -f /Users/envieidoc/CloverGrowerPro/toolchain/cross/lib/`gcc -g -O2 -print-multi-os-directory`/./libiberty.an /Users/envieidoc/CloverGrowerPro/toolchain/cross/lib/`gcc -g -O2 -print-multi-os-directory`/./libiberty.a; \
		case "" in \
		  /*)    thd=;; \
		  *)     thd=/Users/envieidoc/CloverGrowerPro/toolchain/cross/include/;; \
		esac; \
		/bin/sh /Users/envieidoc/CloverGrowerPro/src/gcc/binutils-2.25/libiberty/../mkinstalldirs ${thd}; \
		for h in /Users/envieidoc/CloverGrowerPro/src/gcc/binutils-2.25/libiberty/../include/ansidecl.h /Users/envieidoc/CloverGrowerPro/src/gcc/binutils-2.25/libiberty/../include/demangle.h /Users/envieidoc/CloverGrowerPro/src/gcc/binutils-2.25/libiberty/../include/dyn-string.h /Users/envieidoc/CloverGrowerPro/src/gcc/binutils-2.25/libiberty/../include/fibheap.h /Users/envieidoc/CloverGrowerPro/src/gcc/binutils-2.25/libiberty/../include/floatformat.h /Users/envieidoc/CloverGrowerPro/src/gcc/binutils-2.25/libiberty/../include/hashtab.h /Users/envieidoc/CloverGrowerPro/src/gcc/binutils-2.25/libiberty/../include/libiberty.h /Users/envieidoc/CloverGrowerPro/src/gcc/binutils-2.25/libiberty/../include/objalloc.h /Users/envieidoc/CloverGrowerPro/src/gcc/binutils-2.25/libiberty/../include/partition.h /Users/envieidoc/CloverGrowerPro/src/gcc/binutils-2.25/libiberty/../include/safe-ctype.h /Users/envieidoc/CloverGrowerPro/src/gcc/binutils-2.25/libiberty/../include/sort.h /Users/envieidoc/CloverGrowerPro/src/gcc/binutils-2.25/libiberty/../include/splay-tree.h /Users/envieidoc/CloverGrowerPro/src/gcc/binutils-2.25/libiberty/../include/timeval-utils.h; do \
		  /usr/bin/install -c -m 644 $h ${thd}; \
		done; \
	fi
make  install-recursive
config.status: creating config.h
Making install in po
if test -r /Users/envieidoc/CloverGrowerPro/src/gcc/binutils-2.25/gprof/../mkinstalldirs; then \
	  /Users/envieidoc/CloverGrowerPro/src/gcc/binutils-2.25/gprof/../mkinstalldirs /Users/envieidoc/CloverGrowerPro/toolchain/cross/share; \
	else \
	  /Users/envieidoc/CloverGrowerPro/src/gcc/binutils-2.25/gprof/mkinstalldirs /Users/envieidoc/CloverGrowerPro/toolchain/cross/share; \
	fi
Making install in doc
mkdir /Users/envieidoc/CloverGrowerPro/toolchain/cross/share
config.status: config.h is unchanged
test -f config.h || (rm -f stamp-h1 && make stamp-h1)
make[4]: Nothing to be done for `install-exec-am'.
test -z "/Users/envieidoc/CloverGrowerPro/toolchain/cross/share/info" || /Users/envieidoc/CloverGrowerPro/src/gcc/binutils-2.25/gas/../install-sh -c -d "/Users/envieidoc/CloverGrowerPro/toolchain/cross/share/info"
test -z "/Users/envieidoc/CloverGrowerPro/toolchain/cross/share/man/man1" || /Users/envieidoc/CloverGrowerPro/src/gcc/binutils-2.25/gas/../install-sh -c -d "/Users/envieidoc/CloverGrowerPro/toolchain/cross/share/man/man1"
mkdir /Users/envieidoc/CloverGrowerPro/toolchain/cross/share/locale
mkdir /Users/envieidoc/CloverGrowerPro/toolchain/cross/share/locale/bg
mkdir /Users/envieidoc/CloverGrowerPro/toolchain/cross/share/locale/bg/LC_MESSAGES
installing /Users/envieidoc/CloverGrowerPro/src/gcc/binutils-2.25/gprof/po/bg.gmo as /Users/envieidoc/CloverGrowerPro/toolchain/cross/share/locale/bg/LC_MESSAGES/gprof.mo
mkdir /Users/envieidoc/CloverGrowerPro/toolchain/cross/share/locale/da
mkdir /Users/envieidoc/CloverGrowerPro/toolchain/cross/share/locale/da/LC_MESSAGES
 /usr/bin/install -c -m 644 '/Users/envieidoc/CloverGrowerPro/src/gcc/binutils-2.25/gas/doc/as.1' '/Users/envieidoc/CloverGrowerPro/toolchain/cross/share/man/man1/x86_64-clover-linux-gnu-as.1'
installing /Users/envieidoc/CloverGrowerPro/src/gcc/binutils-2.25/gprof/po/da.gmo as /Users/envieidoc/CloverGrowerPro/toolchain/cross/share/locale/da/LC_MESSAGES/gprof.mo
 /usr/bin/install -c -m 644 /Users/envieidoc/CloverGrowerPro/src/gcc/binutils-2.25/gas/doc/as.info '/Users/envieidoc/CloverGrowerPro/toolchain/cross/share/info'
mkdir /Users/envieidoc/CloverGrowerPro/toolchain/cross/share/locale/de
mkdir /Users/envieidoc/CloverGrowerPro/toolchain/cross/share/locale/de/LC_MESSAGES
make  install-recursive
 install-info --info-dir='/Users/envieidoc/CloverGrowerPro/toolchain/cross/share/info' '/Users/envieidoc/CloverGrowerPro/toolchain/cross/share/info/as.info'
installing /Users/envieidoc/CloverGrowerPro/src/gcc/binutils-2.25/gprof/po/de.gmo as /Users/envieidoc/CloverGrowerPro/toolchain/cross/share/locale/de/LC_MESSAGES/gprof.mo
Making install in po
mkdir /Users/envieidoc/CloverGrowerPro/toolchain/cross/share/locale/eo
mkdir /Users/envieidoc/CloverGrowerPro/toolchain/cross/share/locale/eo/LC_MESSAGES
if test -r /Users/envieidoc/CloverGrowerPro/src/gcc/binutils-2.25/gas/../mkinstalldirs; then \
	  /Users/envieidoc/CloverGrowerPro/src/gcc/binutils-2.25/gas/../mkinstalldirs /Users/envieidoc/CloverGrowerPro/toolchain/cross/share; \
	else \
	  /Users/envieidoc/CloverGrowerPro/src/gcc/binutils-2.25/gas/mkinstalldirs /Users/envieidoc/CloverGrowerPro/toolchain/cross/share; \
	fi
installing /Users/envieidoc/CloverGrowerPro/src/gcc/binutils-2.25/gprof/po/eo.gmo as /Users/envieidoc/CloverGrowerPro/toolchain/cross/share/locale/eo/LC_MESSAGES/gprof.mo
make  install-recursive
mkdir /Users/envieidoc/CloverGrowerPro/toolchain/cross/share/locale/es
mkdir /Users/envieidoc/CloverGrowerPro/toolchain/cross/share/locale/es/LC_MESSAGES
mkdir /Users/envieidoc/CloverGrowerPro/toolchain/cross/share/locale/es/LC_MESSAGES
mkdir: /Users/envieidoc/CloverGrowerPro/toolchain/cross/share/locale/es/LC_MESSAGES: File exists
installing /Users/envieidoc/CloverGrowerPro/src/gcc/binutils-2.25/gprof/po/es.gmo as /Users/envieidoc/CloverGrowerPro/toolchain/cross/share/locale/es/LC_MESSAGES/gprof.mo
installing /Users/envieidoc/CloverGrowerPro/src/gcc/binutils-2.25/gas/po/es.gmo as /Users/envieidoc/CloverGrowerPro/toolchain/cross/share/locale/es/LC_MESSAGES/gas.mo
mkdir /Users/envieidoc/CloverGrowerPro/toolchain/cross/share/locale/fi
mkdir /Users/envieidoc/CloverGrowerPro/toolchain/cross/share/locale/fi/LC_MESSAGES
mkdir /Users/envieidoc/CloverGrowerPro/toolchain/cross/share/locale/fi/LC_MESSAGES
mkdir: /Users/envieidoc/CloverGrowerPro/toolchain/cross/share/locale/fi/LC_MESSAGES: File exists
installing /Users/envieidoc/CloverGrowerPro/src/gcc/binutils-2.25/gas/po/fi.gmo as /Users/envieidoc/CloverGrowerPro/toolchain/cross/share/locale/fi/LC_MESSAGES/gas.mo
installing /Users/envieidoc/CloverGrowerPro/src/gcc/binutils-2.25/gprof/po/fi.gmo as /Users/envieidoc/CloverGrowerPro/toolchain/cross/share/locale/fi/LC_MESSAGES/gprof.mo
mkdir /Users/envieidoc/CloverGrowerPro/toolchain/cross/share/locale/fr
mkdir /Users/envieidoc/CloverGrowerPro/toolchain/cross/share/locale/fr
mkdir /Users/envieidoc/CloverGrowerPro/toolchain/cross/share/locale/fr/LC_MESSAGES
mkdir: /Users/envieidoc/CloverGrowerPro/toolchain/cross/share/locale/fr: File exists
mkdir /Users/envieidoc/CloverGrowerPro/toolchain/cross/share/locale/fr/LC_MESSAGES
mkdir: /Users/envieidoc/CloverGrowerPro/toolchain/cross/share/locale/fr/LC_MESSAGES: File exists
installing /Users/envieidoc/CloverGrowerPro/src/gcc/binutils-2.25/gprof/po/fr.gmo as /Users/envieidoc/CloverGrowerPro/toolchain/cross/share/locale/fr/LC_MESSAGES/gprof.mo
installing /Users/envieidoc/CloverGrowerPro/src/gcc/binutils-2.25/gas/po/fr.gmo as /Users/envieidoc/CloverGrowerPro/toolchain/cross/share/locale/fr/LC_MESSAGES/gas.mo
mkdir /Users/envieidoc/CloverGrowerPro/toolchain/cross/share/locale/id
mkdir /Users/envieidoc/CloverGrowerPro/toolchain/cross/share/locale/ga
mkdir /Users/envieidoc/CloverGrowerPro/toolchain/cross/share/locale/ga/LC_MESSAGES
mkdir /Users/envieidoc/CloverGrowerPro/toolchain/cross/share/locale/id/LC_MESSAGES
installing /Users/envieidoc/CloverGrowerPro/src/gcc/binutils-2.25/gas/po/id.gmo as /Users/envieidoc/CloverGrowerPro/toolchain/cross/share/locale/id/LC_MESSAGES/gas.mo
installing /Users/envieidoc/CloverGrowerPro/src/gcc/binutils-2.25/gprof/po/ga.gmo as /Users/envieidoc/CloverGrowerPro/toolchain/cross/share/locale/ga/LC_MESSAGES/gprof.mo
mkdir /Users/envieidoc/CloverGrowerPro/toolchain/cross/share/locale/ja
mkdir /Users/envieidoc/CloverGrowerPro/toolchain/cross/share/locale/hu
mkdir /Users/envieidoc/CloverGrowerPro/toolchain/cross/share/locale/ja/LC_MESSAGES
mkdir /Users/envieidoc/CloverGrowerPro/toolchain/cross/share/locale/hu/LC_MESSAGES
installing /Users/envieidoc/CloverGrowerPro/src/gcc/binutils-2.25/gas/po/ja.gmo as /Users/envieidoc/CloverGrowerPro/toolchain/cross/share/locale/ja/LC_MESSAGES/gas.mo
installing /Users/envieidoc/CloverGrowerPro/src/gcc/binutils-2.25/gprof/po/hu.gmo as /Users/envieidoc/CloverGrowerPro/toolchain/cross/share/locale/hu/LC_MESSAGES/gprof.mo
installing /Users/envieidoc/CloverGrowerPro/src/gcc/binutils-2.25/gprof/po/id.gmo as /Users/envieidoc/CloverGrowerPro/toolchain/cross/share/locale/id/LC_MESSAGES/gprof.mo
mkdir /Users/envieidoc/CloverGrowerPro/toolchain/cross/share/locale/ru
mkdir /Users/envieidoc/CloverGrowerPro/toolchain/cross/share/locale/ru/LC_MESSAGES
installing /Users/envieidoc/CloverGrowerPro/src/gcc/binutils-2.25/gas/po/ru.gmo as /Users/envieidoc/CloverGrowerPro/toolchain/cross/share/locale/ru/LC_MESSAGES/gas.mo
mkdir /Users/envieidoc/CloverGrowerPro/toolchain/cross/share/locale/it
mkdir /Users/envieidoc/CloverGrowerPro/toolchain/cross/share/locale/it/LC_MESSAGES
installing /Users/envieidoc/CloverGrowerPro/src/gcc/binutils-2.25/gprof/po/it.gmo as /Users/envieidoc/CloverGrowerPro/toolchain/cross/share/locale/it/LC_MESSAGES/gprof.mo
mkdir /Users/envieidoc/CloverGrowerPro/toolchain/cross/share/locale/rw
mkdir /Users/envieidoc/CloverGrowerPro/toolchain/cross/share/locale/rw/LC_MESSAGES
installing /Users/envieidoc/CloverGrowerPro/src/gcc/binutils-2.25/gas/po/rw.gmo as /Users/envieidoc/CloverGrowerPro/toolchain/cross/share/locale/rw/LC_MESSAGES/gas.mo
installing /Users/envieidoc/CloverGrowerPro/src/gcc/binutils-2.25/gprof/po/ja.gmo as /Users/envieidoc/CloverGrowerPro/toolchain/cross/share/locale/ja/LC_MESSAGES/gprof.mo
mkdir /Users/envieidoc/CloverGrowerPro/toolchain/cross/share/locale/tr
mkdir /Users/envieidoc/CloverGrowerPro/toolchain/cross/share/locale/tr/LC_MESSAGES
mkdir /Users/envieidoc/CloverGrowerPro/toolchain/cross/share/locale/ms
mkdir /Users/envieidoc/CloverGrowerPro/toolchain/cross/share/locale/ms/LC_MESSAGES
installing /Users/envieidoc/CloverGrowerPro/src/gcc/binutils-2.25/gas/po/tr.gmo as /Users/envieidoc/CloverGrowerPro/toolchain/cross/share/locale/tr/LC_MESSAGES/gas.mo
installing /Users/envieidoc/CloverGrowerPro/src/gcc/binutils-2.25/gprof/po/ms.gmo as /Users/envieidoc/CloverGrowerPro/toolchain/cross/share/locale/ms/LC_MESSAGES/gprof.mo
Making install in po
mkdir /Users/envieidoc/CloverGrowerPro/toolchain/cross/share/locale/uk
if test -r /Users/envieidoc/CloverGrowerPro/src/gcc/binutils-2.25/ld/../mkinstalldirs; then \
	  /Users/envieidoc/CloverGrowerPro/src/gcc/binutils-2.25/ld/../mkinstalldirs /Users/envieidoc/CloverGrowerPro/toolchain/cross/share; \
	else \
	  /Users/envieidoc/CloverGrowerPro/src/gcc/binutils-2.25/ld/mkinstalldirs /Users/envieidoc/CloverGrowerPro/toolchain/cross/share; \
	fi
mkdir /Users/envieidoc/CloverGrowerPro/toolchain/cross/share/locale/uk/LC_MESSAGES
mkdir /Users/envieidoc/CloverGrowerPro/toolchain/cross/share/locale/nl
installing /Users/envieidoc/CloverGrowerPro/src/gcc/binutils-2.25/gas/po/uk.gmo as /Users/envieidoc/CloverGrowerPro/toolchain/cross/share/locale/uk/LC_MESSAGES/gas.mo
mkdir /Users/envieidoc/CloverGrowerPro/toolchain/cross/share/locale/nl/LC_MESSAGES
installing /Users/envieidoc/CloverGrowerPro/src/gcc/binutils-2.25/gprof/po/nl.gmo as /Users/envieidoc/CloverGrowerPro/toolchain/cross/share/locale/nl/LC_MESSAGES/gprof.mo
installing /Users/envieidoc/CloverGrowerPro/src/gcc/binutils-2.25/ld/po/bg.gmo as /Users/envieidoc/CloverGrowerPro/toolchain/cross/share/locale/bg/LC_MESSAGES/ld.mo
installing /Users/envieidoc/CloverGrowerPro/src/gcc/binutils-2.25/gas/po/es.gmo as /Users/envieidoc/CloverGrowerPro/toolchain/cross/share/locale/es/LC_MESSAGES/gas.mo
Making install in doc
mkdir /Users/envieidoc/CloverGrowerPro/toolchain/cross/share/locale/pt_BR
mkdir /Users/envieidoc/CloverGrowerPro/toolchain/cross/share/locale/pt_BR/LC_MESSAGES
installing /Users/envieidoc/CloverGrowerPro/src/gcc/binutils-2.25/ld/po/da.gmo as /Users/envieidoc/CloverGrowerPro/toolchain/cross/share/locale/da/LC_MESSAGES/ld.mo
installing /Users/envieidoc/CloverGrowerPro/src/gcc/binutils-2.25/gas/po/fi.gmo as /Users/envieidoc/CloverGrowerPro/toolchain/cross/share/locale/fi/LC_MESSAGES/gas.mo
test -z "/Users/envieidoc/CloverGrowerPro/toolchain/cross/share/info" || /Users/envieidoc/CloverGrowerPro/src/gcc/binutils-2.25/bfd/../install-sh -c -d "/Users/envieidoc/CloverGrowerPro/toolchain/cross/share/info"
installing /Users/envieidoc/CloverGrowerPro/src/gcc/binutils-2.25/gprof/po/pt_BR.gmo as /Users/envieidoc/CloverGrowerPro/toolchain/cross/share/locale/pt_BR/LC_MESSAGES/gprof.mo
installing /Users/envieidoc/CloverGrowerPro/src/gcc/binutils-2.25/ld/po/es.gmo as /Users/envieidoc/CloverGrowerPro/toolchain/cross/share/locale/es/LC_MESSAGES/ld.mo
installing /Users/envieidoc/CloverGrowerPro/src/gcc/binutils-2.25/gas/po/fr.gmo as /Users/envieidoc/CloverGrowerPro/toolchain/cross/share/locale/fr/LC_MESSAGES/gas.mo
mkdir /Users/envieidoc/CloverGrowerPro/toolchain/cross/share/locale/ro
mkdir /Users/envieidoc/CloverGrowerPro/toolchain/cross/share/locale/ro/LC_MESSAGES
 /usr/bin/install -c -m 644 ./bfd.info '/Users/envieidoc/CloverGrowerPro/toolchain/cross/share/info'
installing /Users/envieidoc/CloverGrowerPro/src/gcc/binutils-2.25/gprof/po/ro.gmo as /Users/envieidoc/CloverGrowerPro/toolchain/cross/share/locale/ro/LC_MESSAGES/gprof.mo
installing /Users/envieidoc/CloverGrowerPro/src/gcc/binutils-2.25/ld/po/fi.gmo as /Users/envieidoc/CloverGrowerPro/toolchain/cross/share/locale/fi/LC_MESSAGES/ld.mo
installing /Users/envieidoc/CloverGrowerPro/src/gcc/binutils-2.25/gas/po/id.gmo as /Users/envieidoc/CloverGrowerPro/toolchain/cross/share/locale/id/LC_MESSAGES/gas.mo
installing /Users/envieidoc/CloverGrowerPro/src/gcc/binutils-2.25/gprof/po/ru.gmo as /Users/envieidoc/CloverGrowerPro/toolchain/cross/share/locale/ru/LC_MESSAGES/gprof.mo
 install-info --info-dir='/Users/envieidoc/CloverGrowerPro/toolchain/cross/share/info' '/Users/envieidoc/CloverGrowerPro/toolchain/cross/share/info/bfd.info'
installing /Users/envieidoc/CloverGrowerPro/src/gcc/binutils-2.25/gas/po/ja.gmo as /Users/envieidoc/CloverGrowerPro/toolchain/cross/share/locale/ja/LC_MESSAGES/gas.mo
installing /Users/envieidoc/CloverGrowerPro/src/gcc/binutils-2.25/ld/po/fr.gmo as /Users/envieidoc/CloverGrowerPro/toolchain/cross/share/locale/fr/LC_MESSAGES/ld.mo
Making install in po
installing /Users/envieidoc/CloverGrowerPro/src/gcc/binutils-2.25/gprof/po/rw.gmo as /Users/envieidoc/CloverGrowerPro/toolchain/cross/share/locale/rw/LC_MESSAGES/gprof.mo
if test -r /Users/envieidoc/CloverGrowerPro/src/gcc/binutils-2.25/bfd/../mkinstalldirs; then \
	  /Users/envieidoc/CloverGrowerPro/src/gcc/binutils-2.25/bfd/../mkinstalldirs /Users/envieidoc/CloverGrowerPro/toolchain/cross/share; \
	else \
	  /Users/envieidoc/CloverGrowerPro/src/gcc/binutils-2.25/bfd/mkinstalldirs /Users/envieidoc/CloverGrowerPro/toolchain/cross/share; \
	fi
installing /Users/envieidoc/CloverGrowerPro/src/gcc/binutils-2.25/ld/po/ga.gmo as /Users/envieidoc/CloverGrowerPro/toolchain/cross/share/locale/ga/LC_MESSAGES/ld.mo
installing /Users/envieidoc/CloverGrowerPro/src/gcc/binutils-2.25/gas/po/ru.gmo as /Users/envieidoc/CloverGrowerPro/toolchain/cross/share/locale/ru/LC_MESSAGES/gas.mo
mkdir /Users/envieidoc/CloverGrowerPro/toolchain/cross/share/locale/sr
mkdir /Users/envieidoc/CloverGrowerPro/toolchain/cross/share/locale/sr/LC_MESSAGES
installing /Users/envieidoc/CloverGrowerPro/src/gcc/binutils-2.25/gas/po/rw.gmo as /Users/envieidoc/CloverGrowerPro/toolchain/cross/share/locale/rw/LC_MESSAGES/gas.mo
installing /Users/envieidoc/CloverGrowerPro/src/gcc/binutils-2.25/ld/po/id.gmo as /Users/envieidoc/CloverGrowerPro/toolchain/cross/share/locale/id/LC_MESSAGES/ld.mo
installing /Users/envieidoc/CloverGrowerPro/src/gcc/binutils-2.25/gprof/po/sr.gmo as /Users/envieidoc/CloverGrowerPro/toolchain/cross/share/locale/sr/LC_MESSAGES/gprof.mo
installing /Users/envieidoc/CloverGrowerPro/src/gcc/binutils-2.25/bfd/po/da.gmo as /Users/envieidoc/CloverGrowerPro/toolchain/cross/share/locale/da/LC_MESSAGES/bfd.mo
installing /Users/envieidoc/CloverGrowerPro/src/gcc/binutils-2.25/ld/po/it.gmo as /Users/envieidoc/CloverGrowerPro/toolchain/cross/share/locale/it/LC_MESSAGES/ld.mo
installing /Users/envieidoc/CloverGrowerPro/src/gcc/binutils-2.25/gas/po/tr.gmo as /Users/envieidoc/CloverGrowerPro/toolchain/cross/share/locale/tr/LC_MESSAGES/gas.mo
mkdir /Users/envieidoc/CloverGrowerPro/toolchain/cross/share/locale/sv
installing /Users/envieidoc/CloverGrowerPro/src/gcc/binutils-2.25/bfd/po/es.gmo as /Users/envieidoc/CloverGrowerPro/toolchain/cross/share/locale/es/LC_MESSAGES/bfd.mo
mkdir /Users/envieidoc/CloverGrowerPro/toolchain/cross/share/locale/sv/LC_MESSAGES
installing /Users/envieidoc/CloverGrowerPro/src/gcc/binutils-2.25/gas/po/uk.gmo as /Users/envieidoc/CloverGrowerPro/toolchain/cross/share/locale/uk/LC_MESSAGES/gas.mo
if test "gas" = "gettext"; then \
	  if test -r /Users/envieidoc/CloverGrowerPro/src/gcc/binutils-2.25/gas/../mkinstalldirs; then \
	    /Users/envieidoc/CloverGrowerPro/src/gcc/binutils-2.25/gas/../mkinstalldirs /Users/envieidoc/CloverGrowerPro/toolchain/cross/share/gettext/po; \
	  else \
	    /Users/envieidoc/CloverGrowerPro/src/gcc/binutils-2.25/gas/mkinstalldirs /Users/envieidoc/CloverGrowerPro/toolchain/cross/share/gettext/po; \
	  fi; \
	  /usr/bin/install -c -m 644 /Users/envieidoc/CloverGrowerPro/src/gcc/binutils-2.25/gas/po/Makefile.in.in \
			  /Users/envieidoc/CloverGrowerPro/toolchain/cross/share/gettext/po/Makefile.in.in; \
	else \
	  : ; \
	fi
installing /Users/envieidoc/CloverGrowerPro/src/gcc/binutils-2.25/ld/po/ja.gmo as /Users/envieidoc/CloverGrowerPro/toolchain/cross/share/locale/ja/LC_MESSAGES/ld.mo
installing /Users/envieidoc/CloverGrowerPro/src/gcc/binutils-2.25/gprof/po/sv.gmo as /Users/envieidoc/CloverGrowerPro/toolchain/cross/share/locale/sv/LC_MESSAGES/gprof.mo
installing /Users/envieidoc/CloverGrowerPro/src/gcc/binutils-2.25/bfd/po/fi.gmo as /Users/envieidoc/CloverGrowerPro/toolchain/cross/share/locale/fi/LC_MESSAGES/bfd.mo
installing /Users/envieidoc/CloverGrowerPro/src/gcc/binutils-2.25/ld/po/sv.gmo as /Users/envieidoc/CloverGrowerPro/toolchain/cross/share/locale/sv/LC_MESSAGES/ld.mo
installing /Users/envieidoc/CloverGrowerPro/src/gcc/binutils-2.25/gprof/po/tr.gmo as /Users/envieidoc/CloverGrowerPro/toolchain/cross/share/locale/tr/LC_MESSAGES/gprof.mo
installing /Users/envieidoc/CloverGrowerPro/src/gcc/binutils-2.25/bfd/po/fr.gmo as /Users/envieidoc/CloverGrowerPro/toolchain/cross/share/locale/fr/LC_MESSAGES/bfd.mo
installing /Users/envieidoc/CloverGrowerPro/src/gcc/binutils-2.25/ld/po/tr.gmo as /Users/envieidoc/CloverGrowerPro/toolchain/cross/share/locale/tr/LC_MESSAGES/ld.mo
installing /Users/envieidoc/CloverGrowerPro/src/gcc/binutils-2.25/gprof/po/uk.gmo as /Users/envieidoc/CloverGrowerPro/toolchain/cross/share/locale/uk/LC_MESSAGES/gprof.mo
installing /Users/envieidoc/CloverGrowerPro/src/gcc/binutils-2.25/bfd/po/id.gmo as /Users/envieidoc/CloverGrowerPro/toolchain/cross/share/locale/id/LC_MESSAGES/bfd.mo
installing /Users/envieidoc/CloverGrowerPro/src/gcc/binutils-2.25/ld/po/uk.gmo as /Users/envieidoc/CloverGrowerPro/toolchain/cross/share/locale/uk/LC_MESSAGES/ld.mo
mkdir /Users/envieidoc/CloverGrowerPro/toolchain/cross/share/locale/vi
mkdir /Users/envieidoc/CloverGrowerPro/toolchain/cross/share/locale/vi/LC_MESSAGES
installing /Users/envieidoc/CloverGrowerPro/src/gcc/binutils-2.25/bfd/po/ja.gmo as /Users/envieidoc/CloverGrowerPro/toolchain/cross/share/locale/ja/LC_MESSAGES/bfd.mo
installing /Users/envieidoc/CloverGrowerPro/src/gcc/binutils-2.25/gprof/po/vi.gmo as /Users/envieidoc/CloverGrowerPro/toolchain/cross/share/locale/vi/LC_MESSAGES/gprof.mo
installing /Users/envieidoc/CloverGrowerPro/src/gcc/binutils-2.25/ld/po/vi.gmo as /Users/envieidoc/CloverGrowerPro/toolchain/cross/share/locale/vi/LC_MESSAGES/ld.mo
installing /Users/envieidoc/CloverGrowerPro/src/gcc/binutils-2.25/bfd/po/ro.gmo as /Users/envieidoc/CloverGrowerPro/toolchain/cross/share/locale/ro/LC_MESSAGES/bfd.mo
installing /Users/envieidoc/CloverGrowerPro/src/gcc/binutils-2.25/gprof/po/bg.gmo as /Users/envieidoc/CloverGrowerPro/toolchain/cross/share/locale/bg/LC_MESSAGES/gprof.mo
mkdir /Users/envieidoc/CloverGrowerPro/toolchain/cross/share/locale/zh_CN
mkdir /Users/envieidoc/CloverGrowerPro/toolchain/cross/share/locale/zh_CN/LC_MESSAGES
installing /Users/envieidoc/CloverGrowerPro/src/gcc/binutils-2.25/bfd/po/ru.gmo as /Users/envieidoc/CloverGrowerPro/toolchain/cross/share/locale/ru/LC_MESSAGES/bfd.mo
installing /Users/envieidoc/CloverGrowerPro/src/gcc/binutils-2.25/ld/po/zh_CN.gmo as /Users/envieidoc/CloverGrowerPro/toolchain/cross/share/locale/zh_CN/LC_MESSAGES/ld.mo
installing /Users/envieidoc/CloverGrowerPro/src/gcc/binutils-2.25/gprof/po/da.gmo as /Users/envieidoc/CloverGrowerPro/toolchain/cross/share/locale/da/LC_MESSAGES/gprof.mo
installing /Users/envieidoc/CloverGrowerPro/src/gcc/binutils-2.25/bfd/po/rw.gmo as /Users/envieidoc/CloverGrowerPro/toolchain/cross/share/locale/rw/LC_MESSAGES/bfd.mo
mkdir /Users/envieidoc/CloverGrowerPro/toolchain/cross/share/locale/zh_TW
mkdir /Users/envieidoc/CloverGrowerPro/toolchain/cross/share/locale/zh_TW/LC_MESSAGES
installing /Users/envieidoc/CloverGrowerPro/src/gcc/binutils-2.25/gprof/po/de.gmo as /Users/envieidoc/CloverGrowerPro/toolchain/cross/share/locale/de/LC_MESSAGES/gprof.mo
installing /Users/envieidoc/CloverGrowerPro/src/gcc/binutils-2.25/ld/po/zh_TW.gmo as /Users/envieidoc/CloverGrowerPro/toolchain/cross/share/locale/zh_TW/LC_MESSAGES/ld.mo
installing /Users/envieidoc/CloverGrowerPro/src/gcc/binutils-2.25/bfd/po/sv.gmo as /Users/envieidoc/CloverGrowerPro/toolchain/cross/share/locale/sv/LC_MESSAGES/bfd.mo
installing /Users/envieidoc/CloverGrowerPro/src/gcc/binutils-2.25/gprof/po/eo.gmo as /Users/envieidoc/CloverGrowerPro/toolchain/cross/share/locale/eo/LC_MESSAGES/gprof.mo
installing /Users/envieidoc/CloverGrowerPro/src/gcc/binutils-2.25/ld/po/bg.gmo as /Users/envieidoc/CloverGrowerPro/toolchain/cross/share/locale/bg/LC_MESSAGES/ld.mo
installing /Users/envieidoc/CloverGrowerPro/src/gcc/binutils-2.25/bfd/po/tr.gmo as /Users/envieidoc/CloverGrowerPro/toolchain/cross/share/locale/tr/LC_MESSAGES/bfd.mo
installing /Users/envieidoc/CloverGrowerPro/src/gcc/binutils-2.25/gprof/po/es.gmo as /Users/envieidoc/CloverGrowerPro/toolchain/cross/share/locale/es/LC_MESSAGES/gprof.mo
installing /Users/envieidoc/CloverGrowerPro/src/gcc/binutils-2.25/ld/po/da.gmo as /Users/envieidoc/CloverGrowerPro/toolchain/cross/share/locale/da/LC_MESSAGES/ld.mo
installing /Users/envieidoc/CloverGrowerPro/src/gcc/binutils-2.25/bfd/po/uk.gmo as /Users/envieidoc/CloverGrowerPro/toolchain/cross/share/locale/uk/LC_MESSAGES/bfd.mo
installing /Users/envieidoc/CloverGrowerPro/src/gcc/binutils-2.25/gprof/po/fi.gmo as /Users/envieidoc/CloverGrowerPro/toolchain/cross/share/locale/fi/LC_MESSAGES/gprof.mo
installing /Users/envieidoc/CloverGrowerPro/src/gcc/binutils-2.25/ld/po/es.gmo as /Users/envieidoc/CloverGrowerPro/toolchain/cross/share/locale/es/LC_MESSAGES/ld.mo
installing /Users/envieidoc/CloverGrowerPro/src/gcc/binutils-2.25/bfd/po/vi.gmo as /Users/envieidoc/CloverGrowerPro/toolchain/cross/share/locale/vi/LC_MESSAGES/bfd.mo
installing /Users/envieidoc/CloverGrowerPro/src/gcc/binutils-2.25/gprof/po/fr.gmo as /Users/envieidoc/CloverGrowerPro/toolchain/cross/share/locale/fr/LC_MESSAGES/gprof.mo
installing /Users/envieidoc/CloverGrowerPro/src/gcc/binutils-2.25/ld/po/fi.gmo as /Users/envieidoc/CloverGrowerPro/toolchain/cross/share/locale/fi/LC_MESSAGES/ld.mo
installing /Users/envieidoc/CloverGrowerPro/src/gcc/binutils-2.25/bfd/po/zh_CN.gmo as /Users/envieidoc/CloverGrowerPro/toolchain/cross/share/locale/zh_CN/LC_MESSAGES/bfd.mo
installing /Users/envieidoc/CloverGrowerPro/src/gcc/binutils-2.25/gprof/po/ga.gmo as /Users/envieidoc/CloverGrowerPro/toolchain/cross/share/locale/ga/LC_MESSAGES/gprof.mo
installing /Users/envieidoc/CloverGrowerPro/src/gcc/binutils-2.25/ld/po/fr.gmo as /Users/envieidoc/CloverGrowerPro/toolchain/cross/share/locale/fr/LC_MESSAGES/ld.mo
installing /Users/envieidoc/CloverGrowerPro/src/gcc/binutils-2.25/bfd/po/da.gmo as /Users/envieidoc/CloverGrowerPro/toolchain/cross/share/locale/da/LC_MESSAGES/bfd.mo
installing /Users/envieidoc/CloverGrowerPro/src/gcc/binutils-2.25/gprof/po/hu.gmo as /Users/envieidoc/CloverGrowerPro/toolchain/cross/share/locale/hu/LC_MESSAGES/gprof.mo
installing /Users/envieidoc/CloverGrowerPro/src/gcc/binutils-2.25/ld/po/ga.gmo as /Users/envieidoc/CloverGrowerPro/toolchain/cross/share/locale/ga/LC_MESSAGES/ld.mo
installing /Users/envieidoc/CloverGrowerPro/src/gcc/binutils-2.25/bfd/po/es.gmo as /Users/envieidoc/CloverGrowerPro/toolchain/cross/share/locale/es/LC_MESSAGES/bfd.mo
installing /Users/envieidoc/CloverGrowerPro/src/gcc/binutils-2.25/gprof/po/id.gmo as /Users/envieidoc/CloverGrowerPro/toolchain/cross/share/locale/id/LC_MESSAGES/gprof.mo
installing /Users/envieidoc/CloverGrowerPro/src/gcc/binutils-2.25/ld/po/id.gmo as /Users/envieidoc/CloverGrowerPro/toolchain/cross/share/locale/id/LC_MESSAGES/ld.mo
installing /Users/envieidoc/CloverGrowerPro/src/gcc/binutils-2.25/bfd/po/fi.gmo as /Users/envieidoc/CloverGrowerPro/toolchain/cross/share/locale/fi/LC_MESSAGES/bfd.mo
installing /Users/envieidoc/CloverGrowerPro/src/gcc/binutils-2.25/gprof/po/it.gmo as /Users/envieidoc/CloverGrowerPro/toolchain/cross/share/locale/it/LC_MESSAGES/gprof.mo
installing /Users/envieidoc/CloverGrowerPro/src/gcc/binutils-2.25/ld/po/it.gmo as /Users/envieidoc/CloverGrowerPro/toolchain/cross/share/locale/it/LC_MESSAGES/ld.mo
installing /Users/envieidoc/CloverGrowerPro/src/gcc/binutils-2.25/bfd/po/fr.gmo as /Users/envieidoc/CloverGrowerPro/toolchain/cross/share/locale/fr/LC_MESSAGES/bfd.mo
installing /Users/envieidoc/CloverGrowerPro/src/gcc/binutils-2.25/gprof/po/ja.gmo as /Users/envieidoc/CloverGrowerPro/toolchain/cross/share/locale/ja/LC_MESSAGES/gprof.mo
installing /Users/envieidoc/CloverGrowerPro/src/gcc/binutils-2.25/ld/po/ja.gmo as /Users/envieidoc/CloverGrowerPro/toolchain/cross/share/locale/ja/LC_MESSAGES/ld.mo
installing /Users/envieidoc/CloverGrowerPro/src/gcc/binutils-2.25/bfd/po/id.gmo as /Users/envieidoc/CloverGrowerPro/toolchain/cross/share/locale/id/LC_MESSAGES/bfd.mo
installing /Users/envieidoc/CloverGrowerPro/src/gcc/binutils-2.25/gprof/po/ms.gmo as /Users/envieidoc/CloverGrowerPro/toolchain/cross/share/locale/ms/LC_MESSAGES/gprof.mo
installing /Users/envieidoc/CloverGrowerPro/src/gcc/binutils-2.25/ld/po/sv.gmo as /Users/envieidoc/CloverGrowerPro/toolchain/cross/share/locale/sv/LC_MESSAGES/ld.mo
installing /Users/envieidoc/CloverGrowerPro/src/gcc/binutils-2.25/bfd/po/ja.gmo as /Users/envieidoc/CloverGrowerPro/toolchain/cross/share/locale/ja/LC_MESSAGES/bfd.mo
installing /Users/envieidoc/CloverGrowerPro/src/gcc/binutils-2.25/gprof/po/nl.gmo as /Users/envieidoc/CloverGrowerPro/toolchain/cross/share/locale/nl/LC_MESSAGES/gprof.mo
installing /Users/envieidoc/CloverGrowerPro/src/gcc/binutils-2.25/ld/po/tr.gmo as /Users/envieidoc/CloverGrowerPro/toolchain/cross/share/locale/tr/LC_MESSAGES/ld.mo
installing /Users/envieidoc/CloverGrowerPro/src/gcc/binutils-2.25/bfd/po/ro.gmo as /Users/envieidoc/CloverGrowerPro/toolchain/cross/share/locale/ro/LC_MESSAGES/bfd.mo
installing /Users/envieidoc/CloverGrowerPro/src/gcc/binutils-2.25/gprof/po/pt_BR.gmo as /Users/envieidoc/CloverGrowerPro/toolchain/cross/share/locale/pt_BR/LC_MESSAGES/gprof.mo
installing /Users/envieidoc/CloverGrowerPro/src/gcc/binutils-2.25/ld/po/uk.gmo as /Users/envieidoc/CloverGrowerPro/toolchain/cross/share/locale/uk/LC_MESSAGES/ld.mo
installing /Users/envieidoc/CloverGrowerPro/src/gcc/binutils-2.25/bfd/po/ru.gmo as /Users/envieidoc/CloverGrowerPro/toolchain/cross/share/locale/ru/LC_MESSAGES/bfd.mo
installing /Users/envieidoc/CloverGrowerPro/src/gcc/binutils-2.25/gprof/po/ro.gmo as /Users/envieidoc/CloverGrowerPro/toolchain/cross/share/locale/ro/LC_MESSAGES/gprof.mo
installing /Users/envieidoc/CloverGrowerPro/src/gcc/binutils-2.25/ld/po/vi.gmo as /Users/envieidoc/CloverGrowerPro/toolchain/cross/share/locale/vi/LC_MESSAGES/ld.mo
installing /Users/envieidoc/CloverGrowerPro/src/gcc/binutils-2.25/bfd/po/rw.gmo as /Users/envieidoc/CloverGrowerPro/toolchain/cross/share/locale/rw/LC_MESSAGES/bfd.mo
installing /Users/envieidoc/CloverGrowerPro/src/gcc/binutils-2.25/gprof/po/ru.gmo as /Users/envieidoc/CloverGrowerPro/toolchain/cross/share/locale/ru/LC_MESSAGES/gprof.mo
installing /Users/envieidoc/CloverGrowerPro/src/gcc/binutils-2.25/ld/po/zh_CN.gmo as /Users/envieidoc/CloverGrowerPro/toolchain/cross/share/locale/zh_CN/LC_MESSAGES/ld.mo
installing /Users/envieidoc/CloverGrowerPro/src/gcc/binutils-2.25/bfd/po/sv.gmo as /Users/envieidoc/CloverGrowerPro/toolchain/cross/share/locale/sv/LC_MESSAGES/bfd.mo
installing /Users/envieidoc/CloverGrowerPro/src/gcc/binutils-2.25/gprof/po/rw.gmo as /Users/envieidoc/CloverGrowerPro/toolchain/cross/share/locale/rw/LC_MESSAGES/gprof.mo
installing /Users/envieidoc/CloverGrowerPro/src/gcc/binutils-2.25/ld/po/zh_TW.gmo as /Users/envieidoc/CloverGrowerPro/toolchain/cross/share/locale/zh_TW/LC_MESSAGES/ld.mo
if test "ld" = "gettext"; then \
	  if test -r /Users/envieidoc/CloverGrowerPro/src/gcc/binutils-2.25/ld/../mkinstalldirs; then \
	    /Users/envieidoc/CloverGrowerPro/src/gcc/binutils-2.25/ld/../mkinstalldirs /Users/envieidoc/CloverGrowerPro/toolchain/cross/share/gettext/po; \
	  else \
	    /Users/envieidoc/CloverGrowerPro/src/gcc/binutils-2.25/ld/mkinstalldirs /Users/envieidoc/CloverGrowerPro/toolchain/cross/share/gettext/po; \
	  fi; \
	  /usr/bin/install -c -m 644 /Users/envieidoc/CloverGrowerPro/src/gcc/binutils-2.25/ld/po/Makefile.in.in \
			  /Users/envieidoc/CloverGrowerPro/toolchain/cross/share/gettext/po/Makefile.in.in; \
	else \
	  : ; \
	fi
installing /Users/envieidoc/CloverGrowerPro/src/gcc/binutils-2.25/bfd/po/tr.gmo as /Users/envieidoc/CloverGrowerPro/toolchain/cross/share/locale/tr/LC_MESSAGES/bfd.mo
installing /Users/envieidoc/CloverGrowerPro/src/gcc/binutils-2.25/gprof/po/sr.gmo as /Users/envieidoc/CloverGrowerPro/toolchain/cross/share/locale/sr/LC_MESSAGES/gprof.mo
installing /Users/envieidoc/CloverGrowerPro/src/gcc/binutils-2.25/bfd/po/uk.gmo as /Users/envieidoc/CloverGrowerPro/toolchain/cross/share/locale/uk/LC_MESSAGES/bfd.mo
installing /Users/envieidoc/CloverGrowerPro/src/gcc/binutils-2.25/gprof/po/sv.gmo as /Users/envieidoc/CloverGrowerPro/toolchain/cross/share/locale/sv/LC_MESSAGES/gprof.mo
installing /Users/envieidoc/CloverGrowerPro/src/gcc/binutils-2.25/bfd/po/vi.gmo as /Users/envieidoc/CloverGrowerPro/toolchain/cross/share/locale/vi/LC_MESSAGES/bfd.mo
installing /Users/envieidoc/CloverGrowerPro/src/gcc/binutils-2.25/gprof/po/tr.gmo as /Users/envieidoc/CloverGrowerPro/toolchain/cross/share/locale/tr/LC_MESSAGES/gprof.mo
installing /Users/envieidoc/CloverGrowerPro/src/gcc/binutils-2.25/bfd/po/zh_CN.gmo as /Users/envieidoc/CloverGrowerPro/toolchain/cross/share/locale/zh_CN/LC_MESSAGES/bfd.mo
if test "bfd" = "gettext"; then \
	  if test -r /Users/envieidoc/CloverGrowerPro/src/gcc/binutils-2.25/bfd/../mkinstalldirs; then \
	    /Users/envieidoc/CloverGrowerPro/src/gcc/binutils-2.25/bfd/../mkinstalldirs /Users/envieidoc/CloverGrowerPro/toolchain/cross/share/gettext/po; \
	  else \
	    /Users/envieidoc/CloverGrowerPro/src/gcc/binutils-2.25/bfd/mkinstalldirs /Users/envieidoc/CloverGrowerPro/toolchain/cross/share/gettext/po; \
	  fi; \
	  /usr/bin/install -c -m 644 /Users/envieidoc/CloverGrowerPro/src/gcc/binutils-2.25/bfd/po/Makefile.in.in \
			  /Users/envieidoc/CloverGrowerPro/toolchain/cross/share/gettext/po/Makefile.in.in; \
	else \
	  : ; \
	fi
installing /Users/envieidoc/CloverGrowerPro/src/gcc/binutils-2.25/gprof/po/uk.gmo as /Users/envieidoc/CloverGrowerPro/toolchain/cross/share/locale/uk/LC_MESSAGES/gprof.mo
installing /Users/envieidoc/CloverGrowerPro/src/gcc/binutils-2.25/gprof/po/vi.gmo as /Users/envieidoc/CloverGrowerPro/toolchain/cross/share/locale/vi/LC_MESSAGES/gprof.mo
if test "gprof" = "gettext"; then \
	  if test -r /Users/envieidoc/CloverGrowerPro/src/gcc/binutils-2.25/gprof/../mkinstalldirs; then \
	    /Users/envieidoc/CloverGrowerPro/src/gcc/binutils-2.25/gprof/../mkinstalldirs /Users/envieidoc/CloverGrowerPro/toolchain/cross/share/gettext/po; \
	  else \
	    /Users/envieidoc/CloverGrowerPro/src/gcc/binutils-2.25/gprof/mkinstalldirs /Users/envieidoc/CloverGrowerPro/toolchain/cross/share/gettext/po; \
	  fi; \
	  /usr/bin/install -c -m 644 /Users/envieidoc/CloverGrowerPro/src/gcc/binutils-2.25/gprof/po/Makefile.in.in \
			  /Users/envieidoc/CloverGrowerPro/toolchain/cross/share/gettext/po/Makefile.in.in; \
	else \
	  : ; \
	fi
/bin/sh /Users/envieidoc/CloverGrowerPro/src/gcc/binutils-2.25/gas/../mkinstalldirs /Users/envieidoc/CloverGrowerPro/toolchain/cross/bin
make[4]: Nothing to be done for `install-data-am'.
mkdir /Users/envieidoc/CloverGrowerPro/toolchain/cross/bin
  /bin/sh ./libtool  --mode=install /usr/bin/install -c as-new /Users/envieidoc/CloverGrowerPro/toolchain/cross/bin/x86_64-clover-linux-gnu-as
libtool: install: /usr/bin/install -c as-new /Users/envieidoc/CloverGrowerPro/toolchain/cross/bin/x86_64-clover-linux-gnu-as
/bin/sh /Users/envieidoc/CloverGrowerPro/src/gcc/binutils-2.25/gas/../mkinstalldirs /Users/envieidoc/CloverGrowerPro/toolchain/cross/x86_64-clover-linux-gnu/bin
mkdir /Users/envieidoc/CloverGrowerPro/toolchain/cross/x86_64-clover-linux-gnu
mkdir /Users/envieidoc/CloverGrowerPro/toolchain/cross/x86_64-clover-linux-gnu/bin
n=`echo as | sed 's&^&x86_64-clover-linux-gnu-&'`; \
	if [ "/Users/envieidoc/CloverGrowerPro/toolchain/cross/bin/$n" != "/Users/envieidoc/CloverGrowerPro/toolchain/cross/x86_64-clover-linux-gnu/bin/as" ]; then \
	  rm -f /Users/envieidoc/CloverGrowerPro/toolchain/cross/x86_64-clover-linux-gnu/bin/as; \
	  ln /Users/envieidoc/CloverGrowerPro/toolchain/cross/bin/$n /Users/envieidoc/CloverGrowerPro/toolchain/cross/x86_64-clover-linux-gnu/bin/as >/dev/null 2>/dev/null \
	    ||  /bin/sh ./libtool --mode=install /usr/bin/install -c as-new /Users/envieidoc/CloverGrowerPro/toolchain/cross/x86_64-clover-linux-gnu/bin/as; \
	else \
	  true ; \
	fi
test -z "/Users/envieidoc/CloverGrowerPro/toolchain/cross/bin" || /Users/envieidoc/CloverGrowerPro/src/gcc/binutils-2.25/gprof/../install-sh -c -d "/Users/envieidoc/CloverGrowerPro/toolchain/cross/bin"
test -z "/Users/envieidoc/CloverGrowerPro/toolchain/cross/share/info" || /Users/envieidoc/CloverGrowerPro/src/gcc/binutils-2.25/gprof/../install-sh -c -d "/Users/envieidoc/CloverGrowerPro/toolchain/cross/share/info"
test -z "/Users/envieidoc/CloverGrowerPro/toolchain/cross/share/man/man1" || /Users/envieidoc/CloverGrowerPro/src/gcc/binutils-2.25/gprof/../install-sh -c -d "/Users/envieidoc/CloverGrowerPro/toolchain/cross/share/man/man1"
  /bin/sh ./libtool   --mode=install /usr/bin/install -c gprof '/Users/envieidoc/CloverGrowerPro/toolchain/cross/bin/./x86_64-clover-linux-gnu-gprof'
 /usr/bin/install -c -m 644 '/Users/envieidoc/CloverGrowerPro/src/gcc/binutils-2.25/gprof/gprof.1' '/Users/envieidoc/CloverGrowerPro/toolchain/cross/share/man/man1/x86_64-clover-linux-gnu-gprof.1'
 /usr/bin/install -c -m 644 /Users/envieidoc/CloverGrowerPro/src/gcc/binutils-2.25/gprof/gprof.info '/Users/envieidoc/CloverGrowerPro/toolchain/cross/share/info'
libtool: install: /usr/bin/install -c gprof /Users/envieidoc/CloverGrowerPro/toolchain/cross/bin/./x86_64-clover-linux-gnu-gprof
 install-info --info-dir='/Users/envieidoc/CloverGrowerPro/toolchain/cross/share/info' '/Users/envieidoc/CloverGrowerPro/toolchain/cross/share/info/gprof.info'
test -z "/Users/envieidoc/CloverGrowerPro/toolchain/cross/bin" || /Users/envieidoc/CloverGrowerPro/src/gcc/binutils-2.25/ld/../install-sh -c -d "/Users/envieidoc/CloverGrowerPro/toolchain/cross/bin"
/bin/sh /Users/envieidoc/CloverGrowerPro/src/gcc/binutils-2.25/ld/../mkinstalldirs /Users/envieidoc/CloverGrowerPro/toolchain/cross/x86_64-clover-linux-gnu/lib/ldscripts
test -z "/Users/envieidoc/CloverGrowerPro/toolchain/cross/share/info" || /Users/envieidoc/CloverGrowerPro/src/gcc/binutils-2.25/ld/../install-sh -c -d "/Users/envieidoc/CloverGrowerPro/toolchain/cross/share/info"
test -z "/Users/envieidoc/CloverGrowerPro/toolchain/cross/share/man/man1" || /Users/envieidoc/CloverGrowerPro/src/gcc/binutils-2.25/ld/../install-sh -c -d "/Users/envieidoc/CloverGrowerPro/toolchain/cross/share/man/man1"
mkdir /Users/envieidoc/CloverGrowerPro/toolchain/cross/x86_64-clover-linux-gnu/lib
mkdir /Users/envieidoc/CloverGrowerPro/toolchain/cross/x86_64-clover-linux-gnu/lib/ldscripts
for f in ldscripts/* ; do \
	  /usr/bin/install -c -m 644 $f /Users/envieidoc/CloverGrowerPro/toolchain/cross/x86_64-clover-linux-gnu/lib/$f ; \
	done
  /bin/sh ./libtool   --mode=install /usr/bin/install -c ld-new '/Users/envieidoc/CloverGrowerPro/toolchain/cross/bin/./x86_64-clover-linux-gnu-ld.bfd'
 /usr/bin/install -c -m 644 '/Users/envieidoc/CloverGrowerPro/src/gcc/binutils-2.25/ld/ld.1' '/Users/envieidoc/CloverGrowerPro/toolchain/cross/share/man/man1/x86_64-clover-linux-gnu-ld.1'
 /usr/bin/install -c -m 644 /Users/envieidoc/CloverGrowerPro/src/gcc/binutils-2.25/ld/ld.info '/Users/envieidoc/CloverGrowerPro/toolchain/cross/share/info'
libtool: install: /usr/bin/install -c ld-new /Users/envieidoc/CloverGrowerPro/toolchain/cross/bin/./x86_64-clover-linux-gnu-ld.bfd
 install-info --info-dir='/Users/envieidoc/CloverGrowerPro/toolchain/cross/share/info' '/Users/envieidoc/CloverGrowerPro/toolchain/cross/share/info/ld.info'
/bin/sh /Users/envieidoc/CloverGrowerPro/src/gcc/binutils-2.25/ld/../mkinstalldirs /Users/envieidoc/CloverGrowerPro/toolchain/cross/x86_64-clover-linux-gnu/bin
n=`echo ld.bfd | sed 's/^ld-new$/ld.bfd/;s&^&x86_64-clover-linux-gnu-&'`; \
	if test "/Users/envieidoc/CloverGrowerPro/toolchain/cross/bin" != "/Users/envieidoc/CloverGrowerPro/toolchain/cross/x86_64-clover-linux-gnu/bin"; then \
	  rm -f /Users/envieidoc/CloverGrowerPro/toolchain/cross/x86_64-clover-linux-gnu/bin/ld.bfd; \
	  ln /Users/envieidoc/CloverGrowerPro/toolchain/cross/bin/$n /Users/envieidoc/CloverGrowerPro/toolchain/cross/x86_64-clover-linux-gnu/bin/ld.bfd >/dev/null 2>/dev/null \
	  ||  /bin/sh ./libtool --mode=install /usr/bin/install -c ld-new /Users/envieidoc/CloverGrowerPro/toolchain/cross/x86_64-clover-linux-gnu/bin/ld.bfd; \
	fi; \
	if test "xyes" = "xyes"; then \
	  ld=`echo ld | sed 's/^ld-new$/ld.bfd/;s&^&x86_64-clover-linux-gnu-&'`; \
	  rm -f /Users/envieidoc/CloverGrowerPro/toolchain/cross/bin/$ld; \
	  ln /Users/envieidoc/CloverGrowerPro/toolchain/cross/bin/$n /Users/envieidoc/CloverGrowerPro/toolchain/cross/bin/$ld >/dev/null 2>/dev/null \
	  ||  /bin/sh ./libtool --mode=install /usr/bin/install -c ld-new /Users/envieidoc/CloverGrowerPro/toolchain/cross/bin/$ld; \
	  if test "/Users/envieidoc/CloverGrowerPro/toolchain/cross/bin" != "/Users/envieidoc/CloverGrowerPro/toolchain/cross/x86_64-clover-linux-gnu/bin"; then \
	    rm -f /Users/envieidoc/CloverGrowerPro/toolchain/cross/x86_64-clover-linux-gnu/bin/ld; \
	    ln /Users/envieidoc/CloverGrowerPro/toolchain/cross/bin/$n /Users/envieidoc/CloverGrowerPro/toolchain/cross/x86_64-clover-linux-gnu/bin/ld >/dev/null 2>/dev/null \
	    ||  /bin/sh ./libtool --mode=install /usr/bin/install -c ld-new /Users/envieidoc/CloverGrowerPro/toolchain/cross/x86_64-clover-linux-gnu/bin/ld; \
	  fi; \
	fi
make[5]: Nothing to be done for `install-exec-am'.
test -z "" || /Users/envieidoc/CloverGrowerPro/src/gcc/binutils-2.25/bfd/../install-sh -c -d ""
test -z "" || /Users/envieidoc/CloverGrowerPro/src/gcc/binutils-2.25/bfd/../install-sh -c -d ""
Making install in .
make[4]: Nothing to be done for `install-exec-am'.
test -z "" || /Users/envieidoc/CloverGrowerPro/src/gcc/binutils-2.25/opcodes/../install-sh -c -d ""
test -z "" || /Users/envieidoc/CloverGrowerPro/src/gcc/binutils-2.25/opcodes/../install-sh -c -d ""
Making install in po
if test -r /Users/envieidoc/CloverGrowerPro/src/gcc/binutils-2.25/opcodes/../mkinstalldirs; then \
	  /Users/envieidoc/CloverGrowerPro/src/gcc/binutils-2.25/opcodes/../mkinstalldirs /Users/envieidoc/CloverGrowerPro/toolchain/cross/share; \
	else \
	  /Users/envieidoc/CloverGrowerPro/src/gcc/binutils-2.25/opcodes/mkinstalldirs /Users/envieidoc/CloverGrowerPro/toolchain/cross/share; \
	fi
installing /Users/envieidoc/CloverGrowerPro/src/gcc/binutils-2.25/opcodes/po/da.gmo as /Users/envieidoc/CloverGrowerPro/toolchain/cross/share/locale/da/LC_MESSAGES/opcodes.mo
installing /Users/envieidoc/CloverGrowerPro/src/gcc/binutils-2.25/opcodes/po/de.gmo as /Users/envieidoc/CloverGrowerPro/toolchain/cross/share/locale/de/LC_MESSAGES/opcodes.mo
installing /Users/envieidoc/CloverGrowerPro/src/gcc/binutils-2.25/opcodes/po/es.gmo as /Users/envieidoc/CloverGrowerPro/toolchain/cross/share/locale/es/LC_MESSAGES/opcodes.mo
installing /Users/envieidoc/CloverGrowerPro/src/gcc/binutils-2.25/opcodes/po/fi.gmo as /Users/envieidoc/CloverGrowerPro/toolchain/cross/share/locale/fi/LC_MESSAGES/opcodes.mo
installing /Users/envieidoc/CloverGrowerPro/src/gcc/binutils-2.25/opcodes/po/fr.gmo as /Users/envieidoc/CloverGrowerPro/toolchain/cross/share/locale/fr/LC_MESSAGES/opcodes.mo
installing /Users/envieidoc/CloverGrowerPro/src/gcc/binutils-2.25/opcodes/po/ga.gmo as /Users/envieidoc/CloverGrowerPro/toolchain/cross/share/locale/ga/LC_MESSAGES/opcodes.mo
installing /Users/envieidoc/CloverGrowerPro/src/gcc/binutils-2.25/opcodes/po/id.gmo as /Users/envieidoc/CloverGrowerPro/toolchain/cross/share/locale/id/LC_MESSAGES/opcodes.mo
installing /Users/envieidoc/CloverGrowerPro/src/gcc/binutils-2.25/opcodes/po/it.gmo as /Users/envieidoc/CloverGrowerPro/toolchain/cross/share/locale/it/LC_MESSAGES/opcodes.mo
installing /Users/envieidoc/CloverGrowerPro/src/gcc/binutils-2.25/opcodes/po/nl.gmo as /Users/envieidoc/CloverGrowerPro/toolchain/cross/share/locale/nl/LC_MESSAGES/opcodes.mo
installing /Users/envieidoc/CloverGrowerPro/src/gcc/binutils-2.25/opcodes/po/pt_BR.gmo as /Users/envieidoc/CloverGrowerPro/toolchain/cross/share/locale/pt_BR/LC_MESSAGES/opcodes.mo
installing /Users/envieidoc/CloverGrowerPro/src/gcc/binutils-2.25/opcodes/po/ro.gmo as /Users/envieidoc/CloverGrowerPro/toolchain/cross/share/locale/ro/LC_MESSAGES/opcodes.mo
installing /Users/envieidoc/CloverGrowerPro/src/gcc/binutils-2.25/opcodes/po/sv.gmo as /Users/envieidoc/CloverGrowerPro/toolchain/cross/share/locale/sv/LC_MESSAGES/opcodes.mo
installing /Users/envieidoc/CloverGrowerPro/src/gcc/binutils-2.25/opcodes/po/tr.gmo as /Users/envieidoc/CloverGrowerPro/toolchain/cross/share/locale/tr/LC_MESSAGES/opcodes.mo
installing /Users/envieidoc/CloverGrowerPro/src/gcc/binutils-2.25/opcodes/po/uk.gmo as /Users/envieidoc/CloverGrowerPro/toolchain/cross/share/locale/uk/LC_MESSAGES/opcodes.mo
installing /Users/envieidoc/CloverGrowerPro/src/gcc/binutils-2.25/opcodes/po/vi.gmo as /Users/envieidoc/CloverGrowerPro/toolchain/cross/share/locale/vi/LC_MESSAGES/opcodes.mo
installing /Users/envieidoc/CloverGrowerPro/src/gcc/binutils-2.25/opcodes/po/zh_CN.gmo as /Users/envieidoc/CloverGrowerPro/toolchain/cross/share/locale/zh_CN/LC_MESSAGES/opcodes.mo
installing /Users/envieidoc/CloverGrowerPro/src/gcc/binutils-2.25/opcodes/po/da.gmo as /Users/envieidoc/CloverGrowerPro/toolchain/cross/share/locale/da/LC_MESSAGES/opcodes.mo
installing /Users/envieidoc/CloverGrowerPro/src/gcc/binutils-2.25/opcodes/po/de.gmo as /Users/envieidoc/CloverGrowerPro/toolchain/cross/share/locale/de/LC_MESSAGES/opcodes.mo
installing /Users/envieidoc/CloverGrowerPro/src/gcc/binutils-2.25/opcodes/po/es.gmo as /Users/envieidoc/CloverGrowerPro/toolchain/cross/share/locale/es/LC_MESSAGES/opcodes.mo
installing /Users/envieidoc/CloverGrowerPro/src/gcc/binutils-2.25/opcodes/po/fi.gmo as /Users/envieidoc/CloverGrowerPro/toolchain/cross/share/locale/fi/LC_MESSAGES/opcodes.mo
installing /Users/envieidoc/CloverGrowerPro/src/gcc/binutils-2.25/opcodes/po/fr.gmo as /Users/envieidoc/CloverGrowerPro/toolchain/cross/share/locale/fr/LC_MESSAGES/opcodes.mo
installing /Users/envieidoc/CloverGrowerPro/src/gcc/binutils-2.25/opcodes/po/ga.gmo as /Users/envieidoc/CloverGrowerPro/toolchain/cross/share/locale/ga/LC_MESSAGES/opcodes.mo
installing /Users/envieidoc/CloverGrowerPro/src/gcc/binutils-2.25/opcodes/po/id.gmo as /Users/envieidoc/CloverGrowerPro/toolchain/cross/share/locale/id/LC_MESSAGES/opcodes.mo
installing /Users/envieidoc/CloverGrowerPro/src/gcc/binutils-2.25/opcodes/po/it.gmo as /Users/envieidoc/CloverGrowerPro/toolchain/cross/share/locale/it/LC_MESSAGES/opcodes.mo
installing /Users/envieidoc/CloverGrowerPro/src/gcc/binutils-2.25/opcodes/po/nl.gmo as /Users/envieidoc/CloverGrowerPro/toolchain/cross/share/locale/nl/LC_MESSAGES/opcodes.mo
installing /Users/envieidoc/CloverGrowerPro/src/gcc/binutils-2.25/opcodes/po/pt_BR.gmo as /Users/envieidoc/CloverGrowerPro/toolchain/cross/share/locale/pt_BR/LC_MESSAGES/opcodes.mo
installing /Users/envieidoc/CloverGrowerPro/src/gcc/binutils-2.25/opcodes/po/ro.gmo as /Users/envieidoc/CloverGrowerPro/toolchain/cross/share/locale/ro/LC_MESSAGES/opcodes.mo
installing /Users/envieidoc/CloverGrowerPro/src/gcc/binutils-2.25/opcodes/po/sv.gmo as /Users/envieidoc/CloverGrowerPro/toolchain/cross/share/locale/sv/LC_MESSAGES/opcodes.mo
installing /Users/envieidoc/CloverGrowerPro/src/gcc/binutils-2.25/opcodes/po/tr.gmo as /Users/envieidoc/CloverGrowerPro/toolchain/cross/share/locale/tr/LC_MESSAGES/opcodes.mo
installing /Users/envieidoc/CloverGrowerPro/src/gcc/binutils-2.25/opcodes/po/uk.gmo as /Users/envieidoc/CloverGrowerPro/toolchain/cross/share/locale/uk/LC_MESSAGES/opcodes.mo
installing /Users/envieidoc/CloverGrowerPro/src/gcc/binutils-2.25/opcodes/po/vi.gmo as /Users/envieidoc/CloverGrowerPro/toolchain/cross/share/locale/vi/LC_MESSAGES/opcodes.mo
installing /Users/envieidoc/CloverGrowerPro/src/gcc/binutils-2.25/opcodes/po/zh_CN.gmo as /Users/envieidoc/CloverGrowerPro/toolchain/cross/share/locale/zh_CN/LC_MESSAGES/opcodes.mo
if test "opcodes" = "gettext"; then \
	  if test -r /Users/envieidoc/CloverGrowerPro/src/gcc/binutils-2.25/opcodes/../mkinstalldirs; then \
	    /Users/envieidoc/CloverGrowerPro/src/gcc/binutils-2.25/opcodes/../mkinstalldirs /Users/envieidoc/CloverGrowerPro/toolchain/cross/share/gettext/po; \
	  else \
	    /Users/envieidoc/CloverGrowerPro/src/gcc/binutils-2.25/opcodes/mkinstalldirs /Users/envieidoc/CloverGrowerPro/toolchain/cross/share/gettext/po; \
	  fi; \
	  /usr/bin/install -c -m 644 /Users/envieidoc/CloverGrowerPro/src/gcc/binutils-2.25/opcodes/po/Makefile.in.in \
			  /Users/envieidoc/CloverGrowerPro/toolchain/cross/share/gettext/po/Makefile.in.in; \
	else \
	  : ; \
	fi
make  install-recursive
Making install in doc
make[5]: Nothing to be done for `install-exec-am'.
test -z "/Users/envieidoc/CloverGrowerPro/toolchain/cross/share/info" || /Users/envieidoc/CloverGrowerPro/src/gcc/binutils-2.25/binutils/../install-sh -c -d "/Users/envieidoc/CloverGrowerPro/toolchain/cross/share/info"
test -z "/Users/envieidoc/CloverGrowerPro/toolchain/cross/share/man/man1" || /Users/envieidoc/CloverGrowerPro/src/gcc/binutils-2.25/binutils/../install-sh -c -d "/Users/envieidoc/CloverGrowerPro/toolchain/cross/share/man/man1"
 /usr/bin/install -c -m 644 '/Users/envieidoc/CloverGrowerPro/src/gcc/binutils-2.25/binutils/doc/addr2line.1' '/Users/envieidoc/CloverGrowerPro/toolchain/cross/share/man/man1/x86_64-clover-linux-gnu-addr2line.1'
 /usr/bin/install -c -m 644 '/Users/envieidoc/CloverGrowerPro/src/gcc/binutils-2.25/binutils/doc/ar.1' '/Users/envieidoc/CloverGrowerPro/toolchain/cross/share/man/man1/x86_64-clover-linux-gnu-ar.1'
 /usr/bin/install -c -m 644 /Users/envieidoc/CloverGrowerPro/src/gcc/binutils-2.25/binutils/doc/binutils.info '/Users/envieidoc/CloverGrowerPro/toolchain/cross/share/info'
 /usr/bin/install -c -m 644 '/Users/envieidoc/CloverGrowerPro/src/gcc/binutils-2.25/binutils/doc/dlltool.1' '/Users/envieidoc/CloverGrowerPro/toolchain/cross/share/man/man1/x86_64-clover-linux-gnu-dlltool.1'
 /usr/bin/install -c -m 644 '/Users/envieidoc/CloverGrowerPro/src/gcc/binutils-2.25/binutils/doc/nlmconv.1' '/Users/envieidoc/CloverGrowerPro/toolchain/cross/share/man/man1/x86_64-clover-linux-gnu-nlmconv.1'
 /usr/bin/install -c -m 644 '/Users/envieidoc/CloverGrowerPro/src/gcc/binutils-2.25/binutils/doc/nm.1' '/Users/envieidoc/CloverGrowerPro/toolchain/cross/share/man/man1/x86_64-clover-linux-gnu-nm.1'
 /usr/bin/install -c -m 644 '/Users/envieidoc/CloverGrowerPro/src/gcc/binutils-2.25/binutils/doc/objcopy.1' '/Users/envieidoc/CloverGrowerPro/toolchain/cross/share/man/man1/x86_64-clover-linux-gnu-objcopy.1'
 /usr/bin/install -c -m 644 '/Users/envieidoc/CloverGrowerPro/src/gcc/binutils-2.25/binutils/doc/objdump.1' '/Users/envieidoc/CloverGrowerPro/toolchain/cross/share/man/man1/x86_64-clover-linux-gnu-objdump.1'
 /usr/bin/install -c -m 644 '/Users/envieidoc/CloverGrowerPro/src/gcc/binutils-2.25/binutils/doc/ranlib.1' '/Users/envieidoc/CloverGrowerPro/toolchain/cross/share/man/man1/x86_64-clover-linux-gnu-ranlib.1'
 install-info --info-dir='/Users/envieidoc/CloverGrowerPro/toolchain/cross/share/info' '/Users/envieidoc/CloverGrowerPro/toolchain/cross/share/info/binutils.info'
 /usr/bin/install -c -m 644 '/Users/envieidoc/CloverGrowerPro/src/gcc/binutils-2.25/binutils/doc/readelf.1' '/Users/envieidoc/CloverGrowerPro/toolchain/cross/share/man/man1/x86_64-clover-linux-gnu-readelf.1'
 /usr/bin/install -c -m 644 '/Users/envieidoc/CloverGrowerPro/src/gcc/binutils-2.25/binutils/doc/size.1' '/Users/envieidoc/CloverGrowerPro/toolchain/cross/share/man/man1/x86_64-clover-linux-gnu-size.1'
 /usr/bin/install -c -m 644 '/Users/envieidoc/CloverGrowerPro/src/gcc/binutils-2.25/binutils/doc/strings.1' '/Users/envieidoc/CloverGrowerPro/toolchain/cross/share/man/man1/x86_64-clover-linux-gnu-strings.1'
 /usr/bin/install -c -m 644 '/Users/envieidoc/CloverGrowerPro/src/gcc/binutils-2.25/binutils/doc/strip.1' '/Users/envieidoc/CloverGrowerPro/toolchain/cross/share/man/man1/x86_64-clover-linux-gnu-strip.1'
 /usr/bin/install -c -m 644 '/Users/envieidoc/CloverGrowerPro/src/gcc/binutils-2.25/binutils/doc/elfedit.1' '/Users/envieidoc/CloverGrowerPro/toolchain/cross/share/man/man1/x86_64-clover-linux-gnu-elfedit.1'
 /usr/bin/install -c -m 644 '/Users/envieidoc/CloverGrowerPro/src/gcc/binutils-2.25/binutils/doc/windres.1' '/Users/envieidoc/CloverGrowerPro/toolchain/cross/share/man/man1/x86_64-clover-linux-gnu-windres.1'
 /usr/bin/install -c -m 644 '/Users/envieidoc/CloverGrowerPro/src/gcc/binutils-2.25/binutils/doc/windmc.1' '/Users/envieidoc/CloverGrowerPro/toolchain/cross/share/man/man1/x86_64-clover-linux-gnu-windmc.1'
 /usr/bin/install -c -m 644 'c++filt.1' '/Users/envieidoc/CloverGrowerPro/toolchain/cross/share/man/man1/x86_64-clover-linux-gnu-c++filt.1'
Making install in po
if test -r /Users/envieidoc/CloverGrowerPro/src/gcc/binutils-2.25/binutils/../mkinstalldirs; then \
	  /Users/envieidoc/CloverGrowerPro/src/gcc/binutils-2.25/binutils/../mkinstalldirs /Users/envieidoc/CloverGrowerPro/toolchain/cross/share; \
	else \
	  /Users/envieidoc/CloverGrowerPro/src/gcc/binutils-2.25/binutils/mkinstalldirs /Users/envieidoc/CloverGrowerPro/toolchain/cross/share; \
	fi
installing /Users/envieidoc/CloverGrowerPro/src/gcc/binutils-2.25/binutils/po/bg.gmo as /Users/envieidoc/CloverGrowerPro/toolchain/cross/share/locale/bg/LC_MESSAGES/binutils.mo
installing /Users/envieidoc/CloverGrowerPro/src/gcc/binutils-2.25/binutils/po/da.gmo as /Users/envieidoc/CloverGrowerPro/toolchain/cross/share/locale/da/LC_MESSAGES/binutils.mo
installing /Users/envieidoc/CloverGrowerPro/src/gcc/binutils-2.25/binutils/po/es.gmo as /Users/envieidoc/CloverGrowerPro/toolchain/cross/share/locale/es/LC_MESSAGES/binutils.mo
installing /Users/envieidoc/CloverGrowerPro/src/gcc/binutils-2.25/binutils/po/fi.gmo as /Users/envieidoc/CloverGrowerPro/toolchain/cross/share/locale/fi/LC_MESSAGES/binutils.mo
installing /Users/envieidoc/CloverGrowerPro/src/gcc/binutils-2.25/binutils/po/fr.gmo as /Users/envieidoc/CloverGrowerPro/toolchain/cross/share/locale/fr/LC_MESSAGES/binutils.mo
mkdir /Users/envieidoc/CloverGrowerPro/toolchain/cross/share/locale/hr
mkdir /Users/envieidoc/CloverGrowerPro/toolchain/cross/share/locale/hr/LC_MESSAGES
installing /Users/envieidoc/CloverGrowerPro/src/gcc/binutils-2.25/binutils/po/hr.gmo as /Users/envieidoc/CloverGrowerPro/toolchain/cross/share/locale/hr/LC_MESSAGES/binutils.mo
installing /Users/envieidoc/CloverGrowerPro/src/gcc/binutils-2.25/binutils/po/id.gmo as /Users/envieidoc/CloverGrowerPro/toolchain/cross/share/locale/id/LC_MESSAGES/binutils.mo
installing /Users/envieidoc/CloverGrowerPro/src/gcc/binutils-2.25/binutils/po/it.gmo as /Users/envieidoc/CloverGrowerPro/toolchain/cross/share/locale/it/LC_MESSAGES/binutils.mo
installing /Users/envieidoc/CloverGrowerPro/src/gcc/binutils-2.25/binutils/po/ja.gmo as /Users/envieidoc/CloverGrowerPro/toolchain/cross/share/locale/ja/LC_MESSAGES/binutils.mo
installing /Users/envieidoc/CloverGrowerPro/src/gcc/binutils-2.25/binutils/po/ro.gmo as /Users/envieidoc/CloverGrowerPro/toolchain/cross/share/locale/ro/LC_MESSAGES/binutils.mo
installing /Users/envieidoc/CloverGrowerPro/src/gcc/binutils-2.25/binutils/po/ru.gmo as /Users/envieidoc/CloverGrowerPro/toolchain/cross/share/locale/ru/LC_MESSAGES/binutils.mo
installing /Users/envieidoc/CloverGrowerPro/src/gcc/binutils-2.25/binutils/po/rw.gmo as /Users/envieidoc/CloverGrowerPro/toolchain/cross/share/locale/rw/LC_MESSAGES/binutils.mo
mkdir /Users/envieidoc/CloverGrowerPro/toolchain/cross/share/locale/sk
mkdir /Users/envieidoc/CloverGrowerPro/toolchain/cross/share/locale/sk/LC_MESSAGES
installing /Users/envieidoc/CloverGrowerPro/src/gcc/binutils-2.25/binutils/po/sk.gmo as /Users/envieidoc/CloverGrowerPro/toolchain/cross/share/locale/sk/LC_MESSAGES/binutils.mo
installing /Users/envieidoc/CloverGrowerPro/src/gcc/binutils-2.25/binutils/po/sr.gmo as /Users/envieidoc/CloverGrowerPro/toolchain/cross/share/locale/sr/LC_MESSAGES/binutils.mo
installing /Users/envieidoc/CloverGrowerPro/src/gcc/binutils-2.25/binutils/po/sv.gmo as /Users/envieidoc/CloverGrowerPro/toolchain/cross/share/locale/sv/LC_MESSAGES/binutils.mo
installing /Users/envieidoc/CloverGrowerPro/src/gcc/binutils-2.25/binutils/po/tr.gmo as /Users/envieidoc/CloverGrowerPro/toolchain/cross/share/locale/tr/LC_MESSAGES/binutils.mo
installing /Users/envieidoc/CloverGrowerPro/src/gcc/binutils-2.25/binutils/po/uk.gmo as /Users/envieidoc/CloverGrowerPro/toolchain/cross/share/locale/uk/LC_MESSAGES/binutils.mo
installing /Users/envieidoc/CloverGrowerPro/src/gcc/binutils-2.25/binutils/po/vi.gmo as /Users/envieidoc/CloverGrowerPro/toolchain/cross/share/locale/vi/LC_MESSAGES/binutils.mo
installing /Users/envieidoc/CloverGrowerPro/src/gcc/binutils-2.25/binutils/po/zh_CN.gmo as /Users/envieidoc/CloverGrowerPro/toolchain/cross/share/locale/zh_CN/LC_MESSAGES/binutils.mo
installing /Users/envieidoc/CloverGrowerPro/src/gcc/binutils-2.25/binutils/po/zh_TW.gmo as /Users/envieidoc/CloverGrowerPro/toolchain/cross/share/locale/zh_TW/LC_MESSAGES/binutils.mo
installing /Users/envieidoc/CloverGrowerPro/src/gcc/binutils-2.25/binutils/po/bg.gmo as /Users/envieidoc/CloverGrowerPro/toolchain/cross/share/locale/bg/LC_MESSAGES/binutils.mo
installing /Users/envieidoc/CloverGrowerPro/src/gcc/binutils-2.25/binutils/po/da.gmo as /Users/envieidoc/CloverGrowerPro/toolchain/cross/share/locale/da/LC_MESSAGES/binutils.mo
installing /Users/envieidoc/CloverGrowerPro/src/gcc/binutils-2.25/binutils/po/es.gmo as /Users/envieidoc/CloverGrowerPro/toolchain/cross/share/locale/es/LC_MESSAGES/binutils.mo
installing /Users/envieidoc/CloverGrowerPro/src/gcc/binutils-2.25/binutils/po/fi.gmo as /Users/envieidoc/CloverGrowerPro/toolchain/cross/share/locale/fi/LC_MESSAGES/binutils.mo
installing /Users/envieidoc/CloverGrowerPro/src/gcc/binutils-2.25/binutils/po/fr.gmo as /Users/envieidoc/CloverGrowerPro/toolchain/cross/share/locale/fr/LC_MESSAGES/binutils.mo
installing /Users/envieidoc/CloverGrowerPro/src/gcc/binutils-2.25/binutils/po/hr.gmo as /Users/envieidoc/CloverGrowerPro/toolchain/cross/share/locale/hr/LC_MESSAGES/binutils.mo
installing /Users/envieidoc/CloverGrowerPro/src/gcc/binutils-2.25/binutils/po/id.gmo as /Users/envieidoc/CloverGrowerPro/toolchain/cross/share/locale/id/LC_MESSAGES/binutils.mo
installing /Users/envieidoc/CloverGrowerPro/src/gcc/binutils-2.25/binutils/po/it.gmo as /Users/envieidoc/CloverGrowerPro/toolchain/cross/share/locale/it/LC_MESSAGES/binutils.mo
installing /Users/envieidoc/CloverGrowerPro/src/gcc/binutils-2.25/binutils/po/ja.gmo as /Users/envieidoc/CloverGrowerPro/toolchain/cross/share/locale/ja/LC_MESSAGES/binutils.mo
installing /Users/envieidoc/CloverGrowerPro/src/gcc/binutils-2.25/binutils/po/ro.gmo as /Users/envieidoc/CloverGrowerPro/toolchain/cross/share/locale/ro/LC_MESSAGES/binutils.mo
installing /Users/envieidoc/CloverGrowerPro/src/gcc/binutils-2.25/binutils/po/ru.gmo as /Users/envieidoc/CloverGrowerPro/toolchain/cross/share/locale/ru/LC_MESSAGES/binutils.mo
installing /Users/envieidoc/CloverGrowerPro/src/gcc/binutils-2.25/binutils/po/rw.gmo as /Users/envieidoc/CloverGrowerPro/toolchain/cross/share/locale/rw/LC_MESSAGES/binutils.mo
installing /Users/envieidoc/CloverGrowerPro/src/gcc/binutils-2.25/binutils/po/sk.gmo as /Users/envieidoc/CloverGrowerPro/toolchain/cross/share/locale/sk/LC_MESSAGES/binutils.mo
installing /Users/envieidoc/CloverGrowerPro/src/gcc/binutils-2.25/binutils/po/sr.gmo as /Users/envieidoc/CloverGrowerPro/toolchain/cross/share/locale/sr/LC_MESSAGES/binutils.mo
installing /Users/envieidoc/CloverGrowerPro/src/gcc/binutils-2.25/binutils/po/sv.gmo as /Users/envieidoc/CloverGrowerPro/toolchain/cross/share/locale/sv/LC_MESSAGES/binutils.mo
installing /Users/envieidoc/CloverGrowerPro/src/gcc/binutils-2.25/binutils/po/tr.gmo as /Users/envieidoc/CloverGrowerPro/toolchain/cross/share/locale/tr/LC_MESSAGES/binutils.mo
installing /Users/envieidoc/CloverGrowerPro/src/gcc/binutils-2.25/binutils/po/uk.gmo as /Users/envieidoc/CloverGrowerPro/toolchain/cross/share/locale/uk/LC_MESSAGES/binutils.mo
installing /Users/envieidoc/CloverGrowerPro/src/gcc/binutils-2.25/binutils/po/vi.gmo as /Users/envieidoc/CloverGrowerPro/toolchain/cross/share/locale/vi/LC_MESSAGES/binutils.mo
installing /Users/envieidoc/CloverGrowerPro/src/gcc/binutils-2.25/binutils/po/zh_CN.gmo as /Users/envieidoc/CloverGrowerPro/toolchain/cross/share/locale/zh_CN/LC_MESSAGES/binutils.mo
installing /Users/envieidoc/CloverGrowerPro/src/gcc/binutils-2.25/binutils/po/zh_TW.gmo as /Users/envieidoc/CloverGrowerPro/toolchain/cross/share/locale/zh_TW/LC_MESSAGES/binutils.mo
if test "binutils" = "gettext"; then \
	  if test -r /Users/envieidoc/CloverGrowerPro/src/gcc/binutils-2.25/binutils/../mkinstalldirs; then \
	    /Users/envieidoc/CloverGrowerPro/src/gcc/binutils-2.25/binutils/../mkinstalldirs /Users/envieidoc/CloverGrowerPro/toolchain/cross/share/gettext/po; \
	  else \
	    /Users/envieidoc/CloverGrowerPro/src/gcc/binutils-2.25/binutils/mkinstalldirs /Users/envieidoc/CloverGrowerPro/toolchain/cross/share/gettext/po; \
	  fi; \
	  /usr/bin/install -c -m 644 /Users/envieidoc/CloverGrowerPro/src/gcc/binutils-2.25/binutils/po/Makefile.in.in \
			  /Users/envieidoc/CloverGrowerPro/toolchain/cross/share/gettext/po/Makefile.in.in; \
	else \
	  : ; \
	fi
test -z "/Users/envieidoc/CloverGrowerPro/toolchain/cross/bin" || /Users/envieidoc/CloverGrowerPro/src/gcc/binutils-2.25/binutils/../install-sh -c -d "/Users/envieidoc/CloverGrowerPro/toolchain/cross/bin"
test -z "/Users/envieidoc/CloverGrowerPro/toolchain/cross/bin" || /Users/envieidoc/CloverGrowerPro/src/gcc/binutils-2.25/binutils/../install-sh -c -d "/Users/envieidoc/CloverGrowerPro/toolchain/cross/bin"
make[5]: Nothing to be done for `install-data-am'.
  /bin/sh ./libtool   --mode=install /usr/bin/install -c size '/Users/envieidoc/CloverGrowerPro/toolchain/cross/bin/./x86_64-clover-linux-gnu-size'
libtool: install: /usr/bin/install -c size /Users/envieidoc/CloverGrowerPro/toolchain/cross/bin/./x86_64-clover-linux-gnu-size
  /bin/sh ./libtool   --mode=install /usr/bin/install -c objdump '/Users/envieidoc/CloverGrowerPro/toolchain/cross/bin/./x86_64-clover-linux-gnu-objdump'
libtool: install: /usr/bin/install -c objdump /Users/envieidoc/CloverGrowerPro/toolchain/cross/bin/./x86_64-clover-linux-gnu-objdump
  /bin/sh ./libtool   --mode=install /usr/bin/install -c ar '/Users/envieidoc/CloverGrowerPro/toolchain/cross/bin/./x86_64-clover-linux-gnu-ar'
libtool: install: /usr/bin/install -c ar /Users/envieidoc/CloverGrowerPro/toolchain/cross/bin/./x86_64-clover-linux-gnu-ar
  /bin/sh ./libtool   --mode=install /usr/bin/install -c strings '/Users/envieidoc/CloverGrowerPro/toolchain/cross/bin/./x86_64-clover-linux-gnu-strings'
libtool: install: /usr/bin/install -c strings /Users/envieidoc/CloverGrowerPro/toolchain/cross/bin/./x86_64-clover-linux-gnu-strings
  /bin/sh ./libtool   --mode=install /usr/bin/install -c ranlib '/Users/envieidoc/CloverGrowerPro/toolchain/cross/bin/./x86_64-clover-linux-gnu-ranlib'
libtool: install: /usr/bin/install -c ranlib /Users/envieidoc/CloverGrowerPro/toolchain/cross/bin/./x86_64-clover-linux-gnu-ranlib
  /bin/sh ./libtool   --mode=install /usr/bin/install -c objcopy '/Users/envieidoc/CloverGrowerPro/toolchain/cross/bin/./x86_64-clover-linux-gnu-objcopy'
libtool: install: /usr/bin/install -c objcopy /Users/envieidoc/CloverGrowerPro/toolchain/cross/bin/./x86_64-clover-linux-gnu-objcopy
  /bin/sh ./libtool   --mode=install /usr/bin/install -c addr2line '/Users/envieidoc/CloverGrowerPro/toolchain/cross/bin/./x86_64-clover-linux-gnu-addr2line'
libtool: install: /usr/bin/install -c addr2line /Users/envieidoc/CloverGrowerPro/toolchain/cross/bin/./x86_64-clover-linux-gnu-addr2line
  /bin/sh ./libtool   --mode=install /usr/bin/install -c readelf '/Users/envieidoc/CloverGrowerPro/toolchain/cross/bin/./x86_64-clover-linux-gnu-readelf'
libtool: install: /usr/bin/install -c readelf /Users/envieidoc/CloverGrowerPro/toolchain/cross/bin/./x86_64-clover-linux-gnu-readelf
  /bin/sh ./libtool   --mode=install /usr/bin/install -c elfedit '/Users/envieidoc/CloverGrowerPro/toolchain/cross/bin/./x86_64-clover-linux-gnu-elfedit'
libtool: install: /usr/bin/install -c elfedit /Users/envieidoc/CloverGrowerPro/toolchain/cross/bin/./x86_64-clover-linux-gnu-elfedit
  /bin/sh ./libtool  --mode=install /usr/bin/install -c nm-new /Users/envieidoc/CloverGrowerPro/toolchain/cross/bin/x86_64-clover-linux-gnu-nm
libtool: install: /usr/bin/install -c nm-new /Users/envieidoc/CloverGrowerPro/toolchain/cross/bin/x86_64-clover-linux-gnu-nm
  /bin/sh ./libtool  --mode=install /usr/bin/install -c strip-new /Users/envieidoc/CloverGrowerPro/toolchain/cross/bin/x86_64-clover-linux-gnu-strip
libtool: install: /usr/bin/install -c strip-new /Users/envieidoc/CloverGrowerPro/toolchain/cross/bin/x86_64-clover-linux-gnu-strip
  /bin/sh ./libtool  --mode=install /usr/bin/install -c cxxfilt /Users/envieidoc/CloverGrowerPro/toolchain/cross/bin/x86_64-clover-linux-gnu-c++filt
libtool: install: /usr/bin/install -c cxxfilt /Users/envieidoc/CloverGrowerPro/toolchain/cross/bin/x86_64-clover-linux-gnu-c++filt
/bin/sh /Users/envieidoc/CloverGrowerPro/src/gcc/binutils-2.25/binutils/../mkinstalldirs /Users/envieidoc/CloverGrowerPro/toolchain/cross/x86_64-clover-linux-gnu/bin
for i in nm-new strip-new ar ranlib dlltool objdump objcopy; do \
	  if [ -f $i ]; then \
	    j=`echo $i | sed -e 's/-new//'`; \
	    k=`echo $j | sed 's&^&x86_64-clover-linux-gnu-&'`; \
	    if [ "/Users/envieidoc/CloverGrowerPro/toolchain/cross/bin/$k" != "/Users/envieidoc/CloverGrowerPro/toolchain/cross/x86_64-clover-linux-gnu/bin/$j" ]; then \
	      rm -f /Users/envieidoc/CloverGrowerPro/toolchain/cross/x86_64-clover-linux-gnu/bin/$j; \
	      ln /Users/envieidoc/CloverGrowerPro/toolchain/cross/bin/$k /Users/envieidoc/CloverGrowerPro/toolchain/cross/x86_64-clover-linux-gnu/bin/$j >/dev/null 2>/dev/null \
		||  /bin/sh ./libtool --mode=install /usr/bin/install -c $i /Users/envieidoc/CloverGrowerPro/toolchain/cross/x86_64-clover-linux-gnu/bin/$j; \
	    fi; \
	  else true; \
	  fi; \
	done
