Making install in src
make[2]: Nothing to be done for `install-data-am'.
 /Users/envieidoc/CloverGrowerPro/src/gcc/mpc-1.0.3/install-sh -c -d '/Users/envieidoc/CloverGrowerPro/toolchain/lib'
 /bin/sh ../libtool   --mode=install /usr/bin/install -c   libmpc.la '/Users/envieidoc/CloverGrowerPro/toolchain/lib'
libtool: install: /usr/bin/install -c .libs/libmpc.3.dylib /Users/envieidoc/CloverGrowerPro/toolchain/lib/libmpc.3.dylib
libtool: install: (cd /Users/envieidoc/CloverGrowerPro/toolchain/lib && { ln -s -f libmpc.3.dylib libmpc.dylib || { rm -f libmpc.dylib && ln -s libmpc.3.dylib libmpc.dylib; }; })
libtool: install: /usr/bin/install -c .libs/libmpc.lai /Users/envieidoc/CloverGrowerPro/toolchain/lib/libmpc.la
libtool: install: /usr/bin/install -c .libs/libmpc.a /Users/envieidoc/CloverGrowerPro/toolchain/lib/libmpc.a
libtool: install: chmod 644 /Users/envieidoc/CloverGrowerPro/toolchain/lib/libmpc.a
libtool: install: ranlib /Users/envieidoc/CloverGrowerPro/toolchain/lib/libmpc.a
Making install in tests
make[2]: Nothing to be done for `install-exec-am'.
make[2]: Nothing to be done for `install-data-am'.
Making install in doc
make[2]: Nothing to be done for `install-exec-am'.
 /Users/envieidoc/CloverGrowerPro/src/gcc/mpc-1.0.3/install-sh -c -d '/Users/envieidoc/CloverGrowerPro/toolchain/share/info'
 /usr/bin/install -c -m 644 /Users/envieidoc/CloverGrowerPro/src/gcc/mpc-1.0.3/doc/mpc.info '/Users/envieidoc/CloverGrowerPro/toolchain/share/info'
 install-info --info-dir='/Users/envieidoc/CloverGrowerPro/toolchain/share/info' '/Users/envieidoc/CloverGrowerPro/toolchain/share/info/mpc.info'
make[2]: Nothing to be done for `install-exec-am'.
 /Users/envieidoc/CloverGrowerPro/src/gcc/mpc-1.0.3/install-sh -c -d '/Users/envieidoc/CloverGrowerPro/toolchain/include'
 /usr/bin/install -c -m 644 /Users/envieidoc/CloverGrowerPro/src/gcc/mpc-1.0.3/src/mpc.h '/Users/envieidoc/CloverGrowerPro/toolchain/include'
